Data Import
…
10 regions in a data set of 26,708 rows (including header). Factor is okay.

test_set_features |>
  distinct(employment_industry)

# A tibble: 22 × 1
   employment_industry
   <chr>              
 1 atmlpfrs           
 2 nduyfdeo           
 3 <NA>               
 4 fcxhlnwr           
 5 pxcmvdjn           
 6 arjwrbjb           
 7 mfikgejo           
 8 rucpziij           
 9 wxleyezf           
10 haxffmxo           
# ℹ 12 more rows

22 possible values in a dataset with 26,708 rows (including header). Factor is okay.

test_set_features |>
  distinct(employment_occupation)

# A tibble: 24 × 1
   employment_occupation
   <chr>                
 1 hfxkjkmi             
 2 xqwwgdyp             
 3 pvmttkik             
 4 <NA>                 
 5 mxkfnird             
 6 cmhcxjea             
 7 xgwztkwe             
 8 tfqavkke             
 9 vlluhbov             
10 dcjcmpih             
# ℹ 14 more rows
…
test_set_features <- 
  test_set_features |>
  mutate(
    employment_industry =
           fct(
              employment_industry,  
              levels = employment_industry_levels 
  )) 

Check works:

test_set_features |>
  count(employment_industry)

# A tibble: 22 × 2
   employment_industry     n
   <fct>               <int>
 1 atmlpfrs              822
 2 nduyfdeo              292
 3 fcxhlnwr             2484
 4 pxcmvdjn             1078
 5 arjwrbjb              885
 6 mfikgejo              649
 7 rucpziij              538
 8 wxleyezf             1805
 9 haxffmxo              160
10 ldnlellj             1224
# ℹ 12 more rows
…
test_set_features <- 
  test_set_features |>
  mutate(
    employment_occupation =
           fct(
              employment_occupation,  
              levels = employment_occupation_levels
  )) 

Check works:

test_set_features |>
  count(employment_occupation)

# A tibble: 24 × 2
   employment_occupation     n
   <fct>                 <int>
 1 hfxkjkmi                725
 2 xqwwgdyp                475
 3 pvmttkik                108
 4 mxkfnird               1561
 5 cmhcxjea               1224
 6 xgwztkwe               1138
 7 tfqavkke                402
 8 vlluhbov                325
 9 dcjcmpih                161
10 xtkaffoo               1748
# ℹ 14 more rows
…
training_set_features <- 
  training_set_features |>
  mutate(
    employment_industry =
           fct(
              employment_industry,  
              levels = employment_industry_levels 
  )) 

Check works:

training_set_features |>
  count(employment_industry)

# A tibble: 22 × 2
   employment_industry     n
   <fct>               <int>
 1 pxcmvdjn             1037
 2 rucpziij              523
 3 wxleyezf             1804
 4 saaquncn              338
 5 xicduogh              851
 6 ldnlellj             1231
 7 wlfvacwt              215
 8 nduyfdeo              286
 9 fcxhlnwr             2468
10 vjjrobsf              527
# ℹ 12 more rows
…
training_set_features <- 
  training_set_features |>
  mutate(
    employment_occupation =
           fct(
              employment_occupation,  
              levels = employment_occupation_levels
  )) 

Check works:

training_set_features |>
  count(employment_occupation)

# A tibble: 24 × 2
   employment_occupation     n
   <fct>                 <int>
 1 xgwztkwe               1082
 2 xtkaffoo               1778
 3 emcorrxb               1270
 4 vlluhbov                354
 5 xqwwgdyp                485
 6 ccgxvspp                341
 7 qxajmpny                548
 8 kldqjyjy                469
 9 mxkfnird               1509
10 hfxkjkmi                766
# ℹ 14 more rows
…
