Data Visualization
…
training_set_features_pq |> 
  count(employment_industry)

# A tibble: 22 × 2
   employment_industry     n
   <fct>               <int>
 1 pxcmvdjn             1037
 2 rucpziij              523
 3 wxleyezf             1804
 4 saaquncn              338
 5 xicduogh              851
 6 ldnlellj             1231
 7 wlfvacwt              215
 8 nduyfdeo              286
 9 fcxhlnwr             2468
10 vjjrobsf              527
# ℹ 12 more rows
…
training_set_features_pq |> 
  count(employment_occupation)

# A tibble: 24 × 2
   employment_occupation     n
   <fct>                 <int>
 1 xgwztkwe               1082
 2 xtkaffoo               1778
 3 emcorrxb               1270
 4 vlluhbov                354
 5 xqwwgdyp                485
 6 ccgxvspp                341
 7 qxajmpny                548
 8 kldqjyjy                469
 9 mxkfnird               1509
10 hfxkjkmi                766
# ℹ 14 more rows
…
